digraph decision {
    graph [center=true,margin=0];
    nd0 [shape=none, label="", height=0];
    nd1 [shape=diamond, label=""];
    nd2 [shape=none, label="", width=0];
    nd3 [shape=none, label="",  height=0];
    nd0 -> nd1;
    nd1 -> nd2 [label="no"];
    nd1 -> nd3 [label="si"];
    {rank=same; nd1; nd2}
}
