digraph functions_tree {
    node [shape=box];
    edge [dir=both,arrowhead=none,arrowtail=open];
    "Efecto" -> "Problema";
    "Problema" -> "Causa 1";
    "Problema" -> "Causa 2";
    "Causa 1" -> "Causa 1.1";
    "Causa 1" -> "Causa 1.2";
    "Causa 2" -> "Causa 2.1";
    "Causa 2" -> "Causa 2.2";
    "Causa 2" -> "Causa 2.3";
}
